…
    ## ── Conflicts ──────────────────────────────────────── tidyverse_conflicts() ──
    ## ✖ dplyr::filter() masks stats::filter()
    ## ✖ dplyr::lag()    masks stats::lag()

## mutate

``` r
gapminder %>%
  mutate(gdp=gdpPercap*pop,
         gdpBill=round(gdp/10^9,2))
```

    ## # A tibble: 1,704 x 8
    ##    country    continent  year lifeExp     pop gdpPercap        gdp gdpBill
    ##    <fct>      <fct>     <int>   <dbl>   <int>     <dbl>      <dbl>   <dbl>
    ##  1 Afghanist… Asia       1952    28.8  8.43e6      779.    6.57e 9    6.57
    ##  2 Afghanist… Asia       1957    30.3  9.24e6      821.    7.59e 9    7.59
    ##  3 Afghanist… Asia       1962    32.0  1.03e7      853.    8.76e 9    8.76
    ##  4 Afghanist… Asia       1967    34.0  1.15e7      836.    9.65e 9    9.65
    ##  5 Afghanist… Asia       1972    36.1  1.31e7      740.    9.68e 9    9.68
    ##  6 Afghanist… Asia       1977    38.4  1.49e7      786.    1.17e10   11.7 
    ##  7 Afghanist… Asia       1982    39.9  1.29e7      978.    1.26e10   12.6 
    ##  8 Afghanist… Asia       1987    40.8  1.39e7      852.    1.18e10   11.8 
    ##  9 Afghanist… Asia       1992    41.7  1.63e7      649.    1.06e10   10.6 
    ## 10 Afghanist… Asia       1997    41.8  2.22e7      635.    1.41e10   14.1 
    ## # ... with 1,694 more rows
…
``` r
gapminder%>%
  mutate(cc=paste(country,continent,sep=", "))
```

    ## # A tibble: 1,704 x 7
    ##    country     continent  year lifeExp      pop gdpPercap cc               
    ##    <fct>       <fct>     <int>   <dbl>    <int>     <dbl> <chr>            
    ##  1 Afghanistan Asia       1952    28.8  8425333      779. Afghanistan, Asia
    ##  2 Afghanistan Asia       1957    30.3  9240934      821. Afghanistan, Asia
    ##  3 Afghanistan Asia       1962    32.0 10267083      853. Afghanistan, Asia
    ##  4 Afghanistan Asia       1967    34.0 11537966      836. Afghanistan, Asia
    ##  5 Afghanistan Asia       1972    36.1 13079460      740. Afghanistan, Asia
    ##  6 Afghanistan Asia       1977    38.4 14880372      786. Afghanistan, Asia
    ##  7 Afghanistan Asia       1982    39.9 12881816      978. Afghanistan, Asia
    ##  8 Afghanistan Asia       1987    40.8 13867957      852. Afghanistan, Asia
    ##  9 Afghanistan Asia       1992    41.7 16317921      649. Afghanistan, Asia
    ## 10 Afghanistan Asia       1997    41.8 22227415      635. Afghanistan, Asia
    ## # ... with 1,694 more rows
…
## grouped mutate

``` r
gapminder%>%
  group_by(country)%>%
  mutate(growth=pop-first(pop))
```

    ## # A tibble: 1,704 x 7
    ## # Groups:   country [142]
    ##    country     continent  year lifeExp      pop gdpPercap   growth
    ##    <fct>       <fct>     <int>   <dbl>    <int>     <dbl>    <int>
    ##  1 Afghanistan Asia       1952    28.8  8425333      779.        0
    ##  2 Afghanistan Asia       1957    30.3  9240934      821.   815601
    ##  3 Afghanistan Asia       1962    32.0 10267083      853.  1841750
    ##  4 Afghanistan Asia       1967    34.0 11537966      836.  3112633
    ##  5 Afghanistan Asia       1972    36.1 13079460      740.  4654127
    ##  6 Afghanistan Asia       1977    38.4 14880372      786.  6455039
    ##  7 Afghanistan Asia       1982    39.9 12881816      978.  4456483
    ##  8 Afghanistan Asia       1987    40.8 13867957      852.  5442624
    ##  9 Afghanistan Asia       1992    41.7 16317921      649.  7892588
    ## 10 Afghanistan Asia       1997    41.8 22227415      635. 13802082
    ## # ... with 1,694 more rows

``` r
gapminder%>%
  group_by(country)%>%
  mutate(growth=pop-pop[year==1972])
```

    ## # A tibble: 1,704 x 7
    ## # Groups:   country [142]
    ##    country     continent  year lifeExp      pop gdpPercap   growth
    ##    <fct>       <fct>     <int>   <dbl>    <int>     <dbl>    <int>
    ##  1 Afghanistan Asia       1952    28.8  8425333      779. -4654127
    ##  2 Afghanistan Asia       1957    30.3  9240934      821. -3838526
    ##  3 Afghanistan Asia       1962    32.0 10267083      853. -2812377
    ##  4 Afghanistan Asia       1967    34.0 11537966      836. -1541494
    ##  5 Afghanistan Asia       1972    36.1 13079460      740.        0
    ##  6 Afghanistan Asia       1977    38.4 14880372      786.  1800912
    ##  7 Afghanistan Asia       1982    39.9 12881816      978.  -197644
    ##  8 Afghanistan Asia       1987    40.8 13867957      852.   788497
    ##  9 Afghanistan Asia       1992    41.7 16317921      649.  3238461
    ## 10 Afghanistan Asia       1997    41.8 22227415      635.  9147955
    ## # ... with 1,694 more rows
…
